Disk quotas for user labner (uid 1247803979): 
     Filesystem   space   quota   limit   grace   files   quota   limit   grace
      /dev/sdb1  96800K   1024M   1024M            3086       0       0        
